﻿-d:DEBUG
-d:TRACE
-d:NETCOREAPP1_1
-nowarn:CS1701
-nowarn:CS1702
-nowarn:CS1705
-debug:portable
-nostdlib
-nologo
"C:\Users\logovskoy\Desktop\dataintegrity\DataIntegrityTestingFramework\src\DataIntegrityTestingFramework\obj\Debug\netcoreapp1.1\dotnet-compile.assemblyinfo.cs"
-out:"C:\Users\logovskoy\Desktop\dataintegrity\DataIntegrityTestingFramework\src\DataIntegrityTestingFramework\bin\Debug\netcoreapp1.1\DataIntegrityTestingFramework.dll"
-r:"C:\Users\logovskoy\.nuget\packages\AspNetCore.Identity.ElasticSearch\0.0.4\lib\netstandard1.6\AspNetCore.Identity.ElasticSearch.dll"
-r:"C:\Users\logovskoy\.nuget\packages\dotnet-test-nunit\3.4.0-beta-1\lib\netcoreapp1.0\dotnet-test-nunit.dll"
-r:"C:\Users\logovskoy\.nuget\packages\Elasticsearch.Net\5.2.0\lib\netstandard1.3\Elasticsearch.Net.dll"
-r:"C:\Users\logovskoy\.nuget\packages\ElasticsearchCrud\2.3.3.1-beta2\lib\netstandard1.4\ElasticsearchCrud.dll"
-r:"C:\Users\logovskoy\.nuget\packages\Microsoft.AspNetCore.Authentication\1.1.1\lib\netstandard1.3\Microsoft.AspNetCore.Authentication.dll"
-r:"C:\Users\logovskoy\.nuget\packages\Microsoft.AspNetCore.Authentication.Cookies\1.1.1\lib\netstandard1.3\Microsoft.AspNetCore.Authentication.Cookies.dll"
-r:"C:\Users\logovskoy\.nuget\packages\Microsoft.AspNetCore.Authorization\1.0.0\lib\netstandard1.3\Microsoft.AspNetCore.Authorization.dll"
-r:"C:\Users\logovskoy\.nuget\packages\Microsoft.AspNetCore.Cryptography.Internal\1.1.1\lib\netstandard1.3\Microsoft.AspNetCore.Cryptography.Internal.dll"
-r:"C:\Users\logovskoy\.nuget\packages\Microsoft.AspNetCore.Cryptography.KeyDerivation\1.1.1\lib\netstandard1.3\Microsoft.AspNetCore.Cryptography.KeyDerivation.dll"
-r:"C:\Users\logovskoy\.nuget\packages\Microsoft.AspNetCore.DataProtection\1.1.1\lib\netstandard1.3\Microsoft.AspNetCore.DataProtection.dll"
-r:"C:\Users\logovskoy\.nuget\packages\Microsoft.AspNetCore.DataProtection.Abstractions\1.1.1\lib\netstandard1.3\Microsoft.AspNetCore.DataProtection.Abstractions.dll"
-r:"C:\Users\logovskoy\.nuget\packages\Microsoft.AspNetCore.Hosting.Abstractions\1.1.1\lib\netstandard1.3\Microsoft.AspNetCore.Hosting.Abstractions.dll"
-r:"C:\Users\logovskoy\.nuget\packages\Microsoft.AspNetCore.Hosting.Server.Abstractions\1.1.1\lib\netstandard1.3\Microsoft.AspNetCore.Hosting.Server.Abstractions.dll"
-r:"C:\Users\logovskoy\.nuget\packages\Microsoft.AspNetCore.Http\1.1.1\lib\netstandard1.3\Microsoft.AspNetCore.Http.dll"
-r:"C:\Users\logovskoy\.nuget\packages\Microsoft.AspNetCore.Http.Abstractions\1.1.1\lib\netstandard1.3\Microsoft.AspNetCore.Http.Abstractions.dll"
-r:"C:\Users\logovskoy\.nuget\packages\Microsoft.AspNetCore.Http.Extensions\1.1.1\lib\netstandard1.3\Microsoft.AspNetCore.Http.Extensions.dll"
-r:"C:\Users\logovskoy\.nuget\packages\Microsoft.AspNetCore.Http.Features\1.1.1\lib\netstandard1.3\Microsoft.AspNetCore.Http.Features.dll"
-r:"C:\Users\logovskoy\.nuget\packages\Microsoft.AspNetCore.Identity\1.1.1\lib\netstandard1.3\Microsoft.AspNetCore.Identity.dll"
-r:"C:\Users\logovskoy\.nuget\packages\Microsoft.AspNetCore.Mvc.Abstractions\1.0.1\lib\netstandard1.3\Microsoft.AspNetCore.Mvc.Abstractions.dll"
-r:"C:\Users\logovskoy\.nuget\packages\Microsoft.AspNetCore.Mvc.Core\1.0.1\lib\netstandard1.6\Microsoft.AspNetCore.Mvc.Core.dll"
-r:"C:\Users\logovskoy\.nuget\packages\Microsoft.AspNetCore.Routing\1.0.0\lib\netstandard1.3\Microsoft.AspNetCore.Routing.dll"
-r:"C:\Users\logovskoy\.nuget\packages\Microsoft.AspNetCore.Routing.Abstractions\1.0.0\lib\netstandard1.3\Microsoft.AspNetCore.Routing.Abstractions.dll"
-r:"C:\Users\logovskoy\.nuget\packages\Microsoft.AspNetCore.WebUtilities\1.1.1\lib\netstandard1.3\Microsoft.AspNetCore.WebUtilities.dll"
-r:"C:\Users\logovskoy\.nuget\packages\Microsoft.CSharp\4.3.0\ref\netstandard1.0\Microsoft.CSharp.dll"
-r:"C:\Users\logovskoy\.nuget\packages\Microsoft.DiaSymReader\1.0.8\lib\netstandard1.1\Microsoft.DiaSymReader.dll"
-r:"C:\Users\logovskoy\.nuget\packages\Microsoft.DotNet.InternalAbstractions\1.0.0\lib\netstandard1.3\Microsoft.DotNet.InternalAbstractions.dll"
-r:"C:\Users\logovskoy\.nuget\packages\Microsoft.DotNet.ProjectModel\1.0.0-rc3-003121\lib\netstandard1.6\Microsoft.DotNet.ProjectModel.dll"
-r:"C:\Users\logovskoy\.nuget\packages\Microsoft.EntityFrameworkCore\1.1.0\lib\netstandard1.3\Microsoft.EntityFrameworkCore.dll"
-r:"C:\Users\logovskoy\.nuget\packages\Microsoft.EntityFrameworkCore.Design\1.1.0\lib\netstandard1.3\Microsoft.EntityFrameworkCore.Design.dll"
-r:"C:\Users\logovskoy\.nuget\packages\Microsoft.EntityFrameworkCore.Relational\1.1.0\lib\netstandard1.3\Microsoft.EntityFrameworkCore.Relational.dll"
-r:"C:\Users\logovskoy\.nuget\packages\Microsoft.EntityFrameworkCore.Relational.Design\1.1.0\lib\netstandard1.3\Microsoft.EntityFrameworkCore.Relational.Design.dll"
-r:"C:\Users\logovskoy\.nuget\packages\Microsoft.Extensions.Caching.Abstractions\1.1.0\lib\netstandard1.0\Microsoft.Extensions.Caching.Abstractions.dll"
-r:"C:\Users\logovskoy\.nuget\packages\Microsoft.Extensions.Caching.Memory\1.1.0\lib\netstandard1.3\Microsoft.Extensions.Caching.Memory.dll"
-r:"C:\Users\logovskoy\.nuget\packages\Microsoft.Extensions.Configuration.Abstractions\1.1.1\lib\netstandard1.0\Microsoft.Extensions.Configuration.Abstractions.dll"
-r:"C:\Users\logovskoy\.nuget\packages\Microsoft.Extensions.DependencyInjection\1.1.0\lib\netstandard1.1\Microsoft.Extensions.DependencyInjection.dll"
-r:"C:\Users\logovskoy\.nuget\packages\Microsoft.Extensions.DependencyInjection.Abstractions\1.1.0\lib\netstandard1.0\Microsoft.Extensions.DependencyInjection.Abstractions.dll"
-r:"C:\Users\logovskoy\.nuget\packages\Microsoft.Extensions.DependencyModel\1.0.0\lib\netstandard1.6\Microsoft.Extensions.DependencyModel.dll"
-r:"C:\Users\logovskoy\.nuget\packages\Microsoft.Extensions.FileProviders.Abstractions\1.1.0\lib\netstandard1.0\Microsoft.Extensions.FileProviders.Abstractions.dll"
-r:"C:\Users\logovskoy\.nuget\packages\Microsoft.Extensions.Logging\1.1.0\lib\netstandard1.1\Microsoft.Extensions.Logging.dll"
-r:"C:\Users\logovskoy\.nuget\packages\Microsoft.Extensions.Logging.Abstractions\1.1.1\lib\netstandard1.1\Microsoft.Extensions.Logging.Abstractions.dll"
-r:"C:\Users\logovskoy\.nuget\packages\Microsoft.Extensions.ObjectPool\1.1.0\lib\netstandard1.3\Microsoft.Extensions.ObjectPool.dll"
-r:"C:\Users\logovskoy\.nuget\packages\Microsoft.Extensions.Options\1.1.1\lib\netstandard1.0\Microsoft.Extensions.Options.dll"
-r:"C:\Users\logovskoy\.nuget\packages\Microsoft.Extensions.PlatformAbstractions\1.0.0\lib\netstandard1.3\Microsoft.Extensions.PlatformAbstractions.dll"
-r:"C:\Users\logovskoy\.nuget\packages\Microsoft.Extensions.Primitives\1.1.0\lib\netstandard1.0\Microsoft.Extensions.Primitives.dll"
-r:"C:\Users\logovskoy\.nuget\packages\Microsoft.Extensions.Testing.Abstractions\1.0.0-preview2-003121\lib\netstandard1.6\Microsoft.Extensions.Testing.Abstractions.dll"
-r:"C:\Users\logovskoy\.nuget\packages\Microsoft.Extensions.WebEncoders\1.1.1\lib\netstandard1.0\Microsoft.Extensions.WebEncoders.dll"
-r:"C:\Users\logovskoy\.nuget\packages\Microsoft.IdentityModel.Logging\1.0.0\lib\netstandard1.4\Microsoft.IdentityModel.Logging.dll"
-r:"C:\Users\logovskoy\.nuget\packages\Microsoft.IdentityModel.Tokens\5.0.0\lib\netstandard1.4\Microsoft.IdentityModel.Tokens.dll"
-r:"C:\Users\logovskoy\.nuget\packages\Microsoft.Net.Http.Headers\1.1.1\lib\netstandard1.1\Microsoft.Net.Http.Headers.dll"
-r:"C:\Users\logovskoy\.nuget\packages\Microsoft.VisualBasic\10.1.0\ref\netstandard1.1\Microsoft.VisualBasic.dll"
-r:"C:\Users\logovskoy\.nuget\packages\Microsoft.Win32.Primitives\4.3.0\ref\netstandard1.3\Microsoft.Win32.Primitives.dll"
-r:"C:\Users\logovskoy\.nuget\packages\Microsoft.Win32.Registry\4.3.0\ref\netstandard1.3\Microsoft.Win32.Registry.dll"
-r:"C:\Users\logovskoy\.nuget\packages\MongoDB.Bson\2.4.3\lib\netstandard1.5\MongoDB.Bson.dll"
-r:"C:\Users\logovskoy\.nuget\packages\MongoDB.Driver\2.4.3\lib\netstandard1.5\MongoDB.Driver.dll"
-r:"C:\Users\logovskoy\.nuget\packages\MongoDB.Driver.Core\2.4.3\lib\netstandard1.5\MongoDB.Driver.Core.dll"
-r:"C:\Users\logovskoy\.nuget\packages\NEST\5.2.0\lib\netstandard1.3\Nest.dll"
-r:"C:\Users\logovskoy\.nuget\packages\Newtonsoft.Json\9.0.1\lib\netstandard1.0\Newtonsoft.Json.dll"
-r:"C:\Users\logovskoy\.nuget\packages\Npgsql\3.1.9\lib\netstandard1.3\Npgsql.dll"
-r:"C:\Users\logovskoy\.nuget\packages\Npgsql.EntityFrameworkCore.PostgreSQL\1.1.0\lib\netstandard1.3\Npgsql.EntityFrameworkCore.PostgreSQL.dll"
-r:"C:\Users\logovskoy\.nuget\packages\Npgsql.EntityFrameworkCore.PostgreSQL.Design\1.1.0\lib\netstandard1.3\Npgsql.EntityFrameworkCore.PostgreSQL.Design.dll"
-r:"C:\Users\logovskoy\.nuget\packages\NuGet.Common\3.5.0-beta2-1484\lib\netstandard1.3\NuGet.Common.dll"
-r:"C:\Users\logovskoy\.nuget\packages\NuGet.Frameworks\3.5.0-beta2-1484\lib\netstandard1.3\NuGet.Frameworks.dll"
-r:"C:\Users\logovskoy\.nuget\packages\NuGet.Packaging\3.5.0-beta2-1484\lib\netstandard1.3\NuGet.Packaging.dll"
-r:"C:\Users\logovskoy\.nuget\packages\NuGet.Packaging.Core\3.5.0-beta2-1484\lib\netstandard1.3\NuGet.Packaging.Core.dll"
-r:"C:\Users\logovskoy\.nuget\packages\NuGet.Packaging.Core.Types\3.5.0-beta2-1484\lib\netstandard1.3\NuGet.Packaging.Core.Types.dll"
-r:"C:\Users\logovskoy\.nuget\packages\NuGet.RuntimeModel\3.5.0-beta2-1484\lib\netstandard1.3\NuGet.RuntimeModel.dll"
-r:"C:\Users\logovskoy\.nuget\packages\NuGet.Versioning\3.5.0-beta2-1484\lib\netstandard1.0\NuGet.Versioning.dll"
-r:"C:\Users\logovskoy\.nuget\packages\NUnit\3.6.0\lib\netstandard1.6\nunit.framework.dll"
-r:"C:\Users\logovskoy\.nuget\packages\NUnit.Portable.Agent\3.4.0-beta-1\lib\netstandard1.3\NUnit.Portable.Agent.dll"
-r:"C:\Users\logovskoy\.nuget\packages\Remotion.Linq\2.1.1\lib\netstandard1.0\Remotion.Linq.dll"
-r:"C:\Users\logovskoy\.nuget\packages\System.AppContext\4.3.0\ref\netstandard1.6\System.AppContext.dll"
-r:"C:\Users\logovskoy\.nuget\packages\System.Buffers\4.3.0\lib\netstandard1.1\System.Buffers.dll"
-r:"C:\Users\logovskoy\.nuget\packages\System.Collections\4.3.0\ref\netstandard1.3\System.Collections.dll"
-r:"C:\Users\logovskoy\.nuget\packages\System.Collections.Concurrent\4.3.0\ref\netstandard1.3\System.Collections.Concurrent.dll"
-r:"C:\Users\logovskoy\.nuget\packages\System.Collections.Immutable\1.3.0\lib\netstandard1.0\System.Collections.Immutable.dll"
-r:"C:\Users\logovskoy\.nuget\packages\System.Collections.NonGeneric\4.3.0\ref\netstandard1.3\System.Collections.NonGeneric.dll"
-r:"C:\Users\logovskoy\.nuget\packages\System.Collections.Specialized\4.0.1\ref\netstandard1.3\System.Collections.Specialized.dll"
-r:"C:\Users\logovskoy\.nuget\packages\System.ComponentModel\4.3.0\ref\netstandard1.0\System.ComponentModel.dll"
-r:"C:\Users\logovskoy\.nuget\packages\System.ComponentModel.Annotations\4.3.0\ref\netstandard1.4\System.ComponentModel.Annotations.dll"
-r:"C:\Users\logovskoy\.nuget\packages\System.ComponentModel.Primitives\4.1.0\ref\netstandard1.0\System.ComponentModel.Primitives.dll"
-r:"C:\Users\logovskoy\.nuget\packages\System.ComponentModel.TypeConverter\4.1.0\ref\netstandard1.5\System.ComponentModel.TypeConverter.dll"
-r:"C:\Users\logovskoy\.nuget\packages\System.Console\4.3.0\ref\netstandard1.3\System.Console.dll"
-r:"C:\Users\logovskoy\.nuget\packages\System.Data.Common\4.3.0\ref\netstandard1.2\System.Data.Common.dll"
-r:"C:\Users\logovskoy\.nuget\packages\System.Diagnostics.Contracts\4.3.0\ref\netstandard1.0\System.Diagnostics.Contracts.dll"
-r:"C:\Users\logovskoy\.nuget\packages\System.Diagnostics.Debug\4.3.0\ref\netstandard1.3\System.Diagnostics.Debug.dll"
-r:"C:\Users\logovskoy\.nuget\packages\System.Diagnostics.DiagnosticSource\4.3.0\lib\netstandard1.3\System.Diagnostics.DiagnosticSource.dll"
-r:"C:\Users\logovskoy\.nuget\packages\System.Diagnostics.Process\4.3.0\ref\netstandard1.4\System.Diagnostics.Process.dll"
-r:"C:\Users\logovskoy\.nuget\packages\System.Diagnostics.StackTrace\4.0.1\ref\netstandard1.3\System.Diagnostics.StackTrace.dll"
-r:"C:\Users\logovskoy\.nuget\packages\System.Diagnostics.Tools\4.3.0\ref\netstandard1.0\System.Diagnostics.Tools.dll"
-r:"C:\Users\logovskoy\.nuget\packages\System.Diagnostics.TraceSource\4.0.0\ref\netstandard1.3\System.Diagnostics.TraceSource.dll"
-r:"C:\Users\logovskoy\.nuget\packages\System.Diagnostics.Tracing\4.3.0\ref\netstandard1.5\System.Diagnostics.Tracing.dll"
-r:"C:\Users\logovskoy\.nuget\packages\System.Dynamic.Runtime\4.3.0\ref\netstandard1.3\System.Dynamic.Runtime.dll"
-r:"C:\Users\logovskoy\.nuget\packages\System.Globalization\4.3.0\ref\netstandard1.3\System.Globalization.dll"
-r:"C:\Users\logovskoy\.nuget\packages\System.Globalization.Calendars\4.3.0\ref\netstandard1.3\System.Globalization.Calendars.dll"
-r:"C:\Users\logovskoy\.nuget\packages\System.Globalization.Extensions\4.3.0\ref\netstandard1.3\System.Globalization.Extensions.dll"
-r:"C:\Users\logovskoy\.nuget\packages\System.IdentityModel.Tokens.Jwt\5.0.0\lib\netstandard1.4\System.IdentityModel.Tokens.Jwt.dll"
-r:"C:\Users\logovskoy\.nuget\packages\System.Interactive.Async\3.0.0\lib\netstandard1.0\System.Interactive.Async.dll"
-r:"C:\Users\logovskoy\.nuget\packages\System.IO\4.3.0\ref\netstandard1.5\System.IO.dll"
-r:"C:\Users\logovskoy\.nuget\packages\System.IO.Compression\4.3.0\ref\netstandard1.3\System.IO.Compression.dll"
-r:"C:\Users\logovskoy\.nuget\packages\System.IO.Compression.ZipFile\4.3.0\ref\netstandard1.3\System.IO.Compression.ZipFile.dll"
-r:"C:\Users\logovskoy\.nuget\packages\System.IO.FileSystem\4.3.0\ref\netstandard1.3\System.IO.FileSystem.dll"
-r:"C:\Users\logovskoy\.nuget\packages\System.IO.FileSystem.Primitives\4.3.0\ref\netstandard1.3\System.IO.FileSystem.Primitives.dll"
-r:"C:\Users\logovskoy\.nuget\packages\System.IO.FileSystem.Watcher\4.3.0\ref\netstandard1.3\System.IO.FileSystem.Watcher.dll"
-r:"C:\Users\logovskoy\.nuget\packages\System.IO.MemoryMappedFiles\4.3.0\ref\netstandard1.3\System.IO.MemoryMappedFiles.dll"
-r:"C:\Users\logovskoy\.nuget\packages\System.IO.UnmanagedMemoryStream\4.3.0\ref\netstandard1.3\System.IO.UnmanagedMemoryStream.dll"
-r:"C:\Users\logovskoy\.nuget\packages\System.Linq\4.3.0\ref\netstandard1.6\System.Linq.dll"
-r:"C:\Users\logovskoy\.nuget\packages\System.Linq.Expressions\4.3.0\ref\netstandard1.6\System.Linq.Expressions.dll"
-r:"C:\Users\logovskoy\.nuget\packages\System.Linq.Parallel\4.3.0\ref\netstandard1.1\System.Linq.Parallel.dll"
-r:"C:\Users\logovskoy\.nuget\packages\System.Linq.Queryable\4.3.0\ref\netstandard1.0\System.Linq.Queryable.dll"
-r:"C:\Users\logovskoy\.nuget\packages\System.Net.Http\4.3.0\ref\netstandard1.3\System.Net.Http.dll"
-r:"C:\Users\logovskoy\.nuget\packages\System.Net.NameResolution\4.3.0\ref\netstandard1.3\System.Net.NameResolution.dll"
-r:"C:\Users\logovskoy\.nuget\packages\System.Net.NetworkInformation\4.1.0\ref\netstandard1.3\System.Net.NetworkInformation.dll"
-r:"C:\Users\logovskoy\.nuget\packages\System.Net.Primitives\4.3.0\ref\netstandard1.3\System.Net.Primitives.dll"
-r:"C:\Users\logovskoy\.nuget\packages\System.Net.Requests\4.3.0\ref\netstandard1.3\System.Net.Requests.dll"
-r:"C:\Users\logovskoy\.nuget\packages\System.Net.Security\4.3.0\ref\netstandard1.3\System.Net.Security.dll"
-r:"C:\Users\logovskoy\.nuget\packages\System.Net.Sockets\4.3.0\ref\netstandard1.3\System.Net.Sockets.dll"
-r:"C:\Users\logovskoy\.nuget\packages\System.Net.WebHeaderCollection\4.3.0\ref\netstandard1.3\System.Net.WebHeaderCollection.dll"
-r:"C:\Users\logovskoy\.nuget\packages\System.Net.WebSockets\4.3.0\ref\netstandard1.3\System.Net.WebSockets.dll"
-r:"C:\Users\logovskoy\.nuget\packages\System.Numerics.Vectors\4.3.0\ref\netstandard1.0\System.Numerics.Vectors.dll"
-r:"C:\Users\logovskoy\.nuget\packages\System.ObjectModel\4.3.0\ref\netstandard1.3\System.ObjectModel.dll"
-r:"C:\Users\logovskoy\.nuget\packages\System.Reflection\4.3.0\ref\netstandard1.5\System.Reflection.dll"
-r:"C:\Users\logovskoy\.nuget\packages\System.Reflection.DispatchProxy\4.3.0\ref\netstandard1.3\System.Reflection.DispatchProxy.dll"
-r:"C:\Users\logovskoy\.nuget\packages\System.Reflection.Emit.ILGeneration\4.3.0\ref\netstandard1.0\System.Reflection.Emit.ILGeneration.dll"
-r:"C:\Users\logovskoy\.nuget\packages\System.Reflection.Emit.Lightweight\4.3.0\ref\netstandard1.0\System.Reflection.Emit.Lightweight.dll"
-r:"C:\Users\logovskoy\.nuget\packages\System.Reflection.Extensions\4.3.0\ref\netstandard1.0\System.Reflection.Extensions.dll"
-r:"C:\Users\logovskoy\.nuget\packages\System.Reflection.Metadata\1.4.1\lib\netstandard1.1\System.Reflection.Metadata.dll"
-r:"C:\Users\logovskoy\.nuget\packages\System.Reflection.Primitives\4.3.0\ref\netstandard1.0\System.Reflection.Primitives.dll"
-r:"C:\Users\logovskoy\.nuget\packages\System.Reflection.TypeExtensions\4.3.0\ref\netstandard1.5\System.Reflection.TypeExtensions.dll"
-r:"C:\Users\logovskoy\.nuget\packages\System.Resources.Reader\4.3.0\lib\netstandard1.0\System.Resources.Reader.dll"
-r:"C:\Users\logovskoy\.nuget\packages\System.Resources.ResourceManager\4.3.0\ref\netstandard1.0\System.Resources.ResourceManager.dll"
-r:"C:\Users\logovskoy\.nuget\packages\System.Runtime\4.3.0\ref\netstandard1.5\System.Runtime.dll"
-r:"C:\Users\logovskoy\.nuget\packages\System.Runtime.CompilerServices.Unsafe\4.3.0\lib\netstandard1.0\System.Runtime.CompilerServices.Unsafe.dll"
-r:"C:\Users\logovskoy\.nuget\packages\System.Runtime.Extensions\4.3.0\ref\netstandard1.5\System.Runtime.Extensions.dll"
-r:"C:\Users\logovskoy\.nuget\packages\System.Runtime.Handles\4.3.0\ref\netstandard1.3\System.Runtime.Handles.dll"
-r:"C:\Users\logovskoy\.nuget\packages\System.Runtime.InteropServices\4.3.0\ref\netcoreapp1.1\System.Runtime.InteropServices.dll"
-r:"C:\Users\logovskoy\.nuget\packages\System.Runtime.InteropServices.RuntimeInformation\4.3.0\ref\netstandard1.1\System.Runtime.InteropServices.RuntimeInformation.dll"
-r:"C:\Users\logovskoy\.nuget\packages\System.Runtime.Loader\4.3.0\ref\netstandard1.5\System.Runtime.Loader.dll"
-r:"C:\Users\logovskoy\.nuget\packages\System.Runtime.Numerics\4.3.0\ref\netstandard1.1\System.Runtime.Numerics.dll"
-r:"C:\Users\logovskoy\.nuget\packages\System.Runtime.Serialization.Primitives\4.1.1\ref\netstandard1.3\System.Runtime.Serialization.Primitives.dll"
-r:"C:\Users\logovskoy\.nuget\packages\System.Security.Claims\4.3.0\ref\netstandard1.3\System.Security.Claims.dll"
-r:"C:\Users\logovskoy\.nuget\packages\System.Security.Cryptography.Algorithms\4.3.0\ref\netstandard1.6\System.Security.Cryptography.Algorithms.dll"
-r:"C:\Users\logovskoy\.nuget\packages\System.Security.Cryptography.Cng\4.3.0\ref\netstandard1.6\System.Security.Cryptography.Cng.dll"
-r:"C:\Users\logovskoy\.nuget\packages\System.Security.Cryptography.Csp\4.3.0\ref\netstandard1.3\System.Security.Cryptography.Csp.dll"
-r:"C:\Users\logovskoy\.nuget\packages\System.Security.Cryptography.Encoding\4.3.0\ref\netstandard1.3\System.Security.Cryptography.Encoding.dll"
-r:"C:\Users\logovskoy\.nuget\packages\System.Security.Cryptography.Primitives\4.3.0\ref\netstandard1.3\System.Security.Cryptography.Primitives.dll"
-r:"C:\Users\logovskoy\.nuget\packages\System.Security.Cryptography.X509Certificates\4.3.0\ref\netstandard1.4\System.Security.Cryptography.X509Certificates.dll"
-r:"C:\Users\logovskoy\.nuget\packages\System.Security.Principal\4.3.0\ref\netstandard1.0\System.Security.Principal.dll"
-r:"C:\Users\logovskoy\.nuget\packages\System.Security.Principal.Windows\4.3.0\ref\netstandard1.3\System.Security.Principal.Windows.dll"
-r:"C:\Users\logovskoy\.nuget\packages\System.Security.SecureString\4.0.0\ref\netstandard1.3\System.Security.SecureString.dll"
-r:"C:\Users\logovskoy\.nuget\packages\System.Text.Encoding\4.3.0\ref\netstandard1.3\System.Text.Encoding.dll"
-r:"C:\Users\logovskoy\.nuget\packages\System.Text.Encoding.Extensions\4.3.0\ref\netstandard1.3\System.Text.Encoding.Extensions.dll"
-r:"C:\Users\logovskoy\.nuget\packages\System.Text.Encodings.Web\4.3.0\lib\netstandard1.0\System.Text.Encodings.Web.dll"
-r:"C:\Users\logovskoy\.nuget\packages\System.Text.RegularExpressions\4.3.0\ref\netcoreapp1.1\System.Text.RegularExpressions.dll"
-r:"C:\Users\logovskoy\.nuget\packages\System.Threading\4.3.0\ref\netstandard1.3\System.Threading.dll"
-r:"C:\Users\logovskoy\.nuget\packages\System.Threading.Tasks\4.3.0\ref\netstandard1.3\System.Threading.Tasks.dll"
-r:"C:\Users\logovskoy\.nuget\packages\System.Threading.Tasks.Dataflow\4.7.0\lib\netstandard1.1\System.Threading.Tasks.Dataflow.dll"
-r:"C:\Users\logovskoy\.nuget\packages\System.Threading.Tasks.Extensions\4.3.0\lib\netstandard1.0\System.Threading.Tasks.Extensions.dll"
-r:"C:\Users\logovskoy\.nuget\packages\System.Threading.Tasks.Parallel\4.3.0\ref\netstandard1.1\System.Threading.Tasks.Parallel.dll"
-r:"C:\Users\logovskoy\.nuget\packages\System.Threading.Thread\4.3.0\ref\netstandard1.3\System.Threading.Thread.dll"
-r:"C:\Users\logovskoy\.nuget\packages\System.Threading.ThreadPool\4.3.0\ref\netstandard1.3\System.Threading.ThreadPool.dll"
-r:"C:\Users\logovskoy\.nuget\packages\System.Threading.Timer\4.3.0\ref\netstandard1.2\System.Threading.Timer.dll"
-r:"C:\Users\logovskoy\.nuget\packages\System.Xml.ReaderWriter\4.3.0\ref\netstandard1.3\System.Xml.ReaderWriter.dll"
-r:"C:\Users\logovskoy\.nuget\packages\System.Xml.XDocument\4.3.0\ref\netstandard1.3\System.Xml.XDocument.dll"
-r:"C:\Users\logovskoy\.nuget\packages\System.Xml.XmlDocument\4.0.1\ref\netstandard1.3\System.Xml.XmlDocument.dll"
"C:\Users\logovskoy\Desktop\dataintegrity\DataIntegrityTestingFramework\src\DataIntegrityTestingFramework\Core\ConfigClass.cs"
"C:\Users\logovskoy\Desktop\dataintegrity\DataIntegrityTestingFramework\src\DataIntegrityTestingFramework\Core\ConfigurationReader.cs"
"C:\Users\logovskoy\Desktop\dataintegrity\DataIntegrityTestingFramework\src\DataIntegrityTestingFramework\Core\MongoConnector.cs"
"C:\Users\logovskoy\Desktop\dataintegrity\DataIntegrityTestingFramework\src\DataIntegrityTestingFramework\Core\Program.cs"
"C:\Users\logovskoy\Desktop\dataintegrity\DataIntegrityTestingFramework\src\DataIntegrityTestingFramework\Core\Common\payments\transactions\CheckTransactions.cs"
"C:\Users\logovskoy\Desktop\dataintegrity\DataIntegrityTestingFramework\src\DataIntegrityTestingFramework\Core\Common\userBio\checkUserBio.cs"
"C:\Users\logovskoy\Desktop\dataintegrity\DataIntegrityTestingFramework\src\DataIntegrityTestingFramework\Core\Tools\Courses.cs"
"C:\Users\logovskoy\Desktop\dataintegrity\DataIntegrityTestingFramework\src\DataIntegrityTestingFramework\Core\Tools\Created.cs"
"C:\Users\logovskoy\Desktop\dataintegrity\DataIntegrityTestingFramework\src\DataIntegrityTestingFramework\Core\Tools\ElasticSearchConnector.cs"
"C:\Users\logovskoy\Desktop\dataintegrity\DataIntegrityTestingFramework\src\DataIntegrityTestingFramework\Core\Tools\Entity.cs"
"C:\Users\logovskoy\Desktop\dataintegrity\DataIntegrityTestingFramework\src\DataIntegrityTestingFramework\Core\Tools\EntityComparator.cs"
"C:\Users\logovskoy\Desktop\dataintegrity\DataIntegrityTestingFramework\src\DataIntegrityTestingFramework\Core\Tools\Entities\CourseLists.cs"
"C:\Users\logovskoy\Desktop\dataintegrity\DataIntegrityTestingFramework\src\DataIntegrityTestingFramework\Core\Tools\Entities\Courses.cs"
"C:\Users\logovskoy\Desktop\dataintegrity\DataIntegrityTestingFramework\src\DataIntegrityTestingFramework\Core\Tools\Entities\Publishers.cs"
"C:\Users\logovskoy\Desktop\dataintegrity\DataIntegrityTestingFramework\src\DataIntegrityTestingFramework\Core\Tools\Entities\Registrations.cs"
"C:\Users\logovskoy\Desktop\dataintegrity\DataIntegrityTestingFramework\src\DataIntegrityTestingFramework\Core\Tools\Entities\Transactions.cs"
"C:\Users\logovskoy\Desktop\dataintegrity\DataIntegrityTestingFramework\src\DataIntegrityTestingFramework\Core\Tools\Entities\User.cs"
"C:\Users\logovskoy\Desktop\dataintegrity\DataIntegrityTestingFramework\src\DataIntegrityTestingFramework\dbcontext\auth\AiccDomains.cs"
"C:\Users\logovskoy\Desktop\dataintegrity\DataIntegrityTestingFramework\src\DataIntegrityTestingFramework\dbcontext\auth\ApiClaims.cs"
"C:\Users\logovskoy\Desktop\dataintegrity\DataIntegrityTestingFramework\src\DataIntegrityTestingFramework\dbcontext\auth\ApiResources.cs"
"C:\Users\logovskoy\Desktop\dataintegrity\DataIntegrityTestingFramework\src\DataIntegrityTestingFramework\dbcontext\auth\ApiScopeClaims.cs"
"C:\Users\logovskoy\Desktop\dataintegrity\DataIntegrityTestingFramework\src\DataIntegrityTestingFramework\dbcontext\auth\ApiScopes.cs"
"C:\Users\logovskoy\Desktop\dataintegrity\DataIntegrityTestingFramework\src\DataIntegrityTestingFramework\dbcontext\auth\ApiSecrets.cs"
"C:\Users\logovskoy\Desktop\dataintegrity\DataIntegrityTestingFramework\src\DataIntegrityTestingFramework\dbcontext\auth\authdevContext.cs"
"C:\Users\logovskoy\Desktop\dataintegrity\DataIntegrityTestingFramework\src\DataIntegrityTestingFramework\dbcontext\auth\Claims.cs"
"C:\Users\logovskoy\Desktop\dataintegrity\DataIntegrityTestingFramework\src\DataIntegrityTestingFramework\dbcontext\auth\ClientClaims.cs"
"C:\Users\logovskoy\Desktop\dataintegrity\DataIntegrityTestingFramework\src\DataIntegrityTestingFramework\dbcontext\auth\ClientCorsOrigins.cs"
"C:\Users\logovskoy\Desktop\dataintegrity\DataIntegrityTestingFramework\src\DataIntegrityTestingFramework\dbcontext\auth\ClientGrantTypes.cs"
"C:\Users\logovskoy\Desktop\dataintegrity\DataIntegrityTestingFramework\src\DataIntegrityTestingFramework\dbcontext\auth\ClientIdPrestrictions.cs"
"C:\Users\logovskoy\Desktop\dataintegrity\DataIntegrityTestingFramework\src\DataIntegrityTestingFramework\dbcontext\auth\ClientPostLogoutRedirectUris.cs"
"C:\Users\logovskoy\Desktop\dataintegrity\DataIntegrityTestingFramework\src\DataIntegrityTestingFramework\dbcontext\auth\ClientRedirectUris.cs"
"C:\Users\logovskoy\Desktop\dataintegrity\DataIntegrityTestingFramework\src\DataIntegrityTestingFramework\dbcontext\auth\Clients.cs"
"C:\Users\logovskoy\Desktop\dataintegrity\DataIntegrityTestingFramework\src\DataIntegrityTestingFramework\dbcontext\auth\ClientScopes.cs"
"C:\Users\logovskoy\Desktop\dataintegrity\DataIntegrityTestingFramework\src\DataIntegrityTestingFramework\dbcontext\auth\ClientSecrets.cs"
"C:\Users\logovskoy\Desktop\dataintegrity\DataIntegrityTestingFramework\src\DataIntegrityTestingFramework\dbcontext\auth\ExternalUsers.cs"
"C:\Users\logovskoy\Desktop\dataintegrity\DataIntegrityTestingFramework\src\DataIntegrityTestingFramework\dbcontext\auth\IdentityClaims.cs"
"C:\Users\logovskoy\Desktop\dataintegrity\DataIntegrityTestingFramework\src\DataIntegrityTestingFramework\dbcontext\auth\IdentityResources.cs"
"C:\Users\logovskoy\Desktop\dataintegrity\DataIntegrityTestingFramework\src\DataIntegrityTestingFramework\dbcontext\auth\LocalUserClaims.cs"
"C:\Users\logovskoy\Desktop\dataintegrity\DataIntegrityTestingFramework\src\DataIntegrityTestingFramework\dbcontext\auth\LocalUsers.cs"
"C:\Users\logovskoy\Desktop\dataintegrity\DataIntegrityTestingFramework\src\DataIntegrityTestingFramework\dbcontext\auth\MessageBackup.cs"
"C:\Users\logovskoy\Desktop\dataintegrity\DataIntegrityTestingFramework\src\DataIntegrityTestingFramework\dbcontext\auth\PersistedGrants.cs"
"C:\Users\logovskoy\Desktop\dataintegrity\DataIntegrityTestingFramework\src\DataIntegrityTestingFramework\dbcontext\payments\ArInternalMetadata.cs"
"C:\Users\logovskoy\Desktop\dataintegrity\DataIntegrityTestingFramework\src\DataIntegrityTestingFramework\dbcontext\payments\Currencies.cs"
"C:\Users\logovskoy\Desktop\dataintegrity\DataIntegrityTestingFramework\src\DataIntegrityTestingFramework\dbcontext\payments\Customers.cs"
"C:\Users\logovskoy\Desktop\dataintegrity\DataIntegrityTestingFramework\src\DataIntegrityTestingFramework\dbcontext\payments\FailedRabbitMessages.cs"
"C:\Users\logovskoy\Desktop\dataintegrity\DataIntegrityTestingFramework\src\DataIntegrityTestingFramework\dbcontext\payments\paymentsContext.cs"
"C:\Users\logovskoy\Desktop\dataintegrity\DataIntegrityTestingFramework\src\DataIntegrityTestingFramework\dbcontext\payments\PaymentSources.cs"
"C:\Users\logovskoy\Desktop\dataintegrity\DataIntegrityTestingFramework\src\DataIntegrityTestingFramework\dbcontext\payments\Registrations.cs"
"C:\Users\logovskoy\Desktop\dataintegrity\DataIntegrityTestingFramework\src\DataIntegrityTestingFramework\dbcontext\payments\SchemaMigrations.cs"
"C:\Users\logovskoy\Desktop\dataintegrity\DataIntegrityTestingFramework\src\DataIntegrityTestingFramework\dbcontext\payments\Transactions.cs"
"C:\Users\logovskoy\Desktop\dataintegrity\DataIntegrityTestingFramework\src\DataIntegrityTestingFramework\Properties\AssemblyInfo.cs"
"C:\Users\logovskoy\Desktop\dataintegrity\DataIntegrityTestingFramework\src\DataIntegrityTestingFramework\Test\payments\transactions\TransactionTestClass.cs"
"C:\Users\logovskoy\Desktop\dataintegrity\DataIntegrityTestingFramework\src\DataIntegrityTestingFramework\Test\userBio\userBioTestClass.cs"
